2019-06-21 08:45:33 [-][1][-][info][yii\db\Connection::open] Opening DB connection: mysql:host=localhost;dbname=architects_climate;port=3306;
2019-06-21 08:45:33 [-][1][-][profile begin][yii\db\Connection::open] Opening DB connection: mysql:host=localhost;dbname=architects_climate;port=3306;
2019-06-21 08:45:33 [-][1][-][profile end][yii\db\Connection::open] Opening DB connection: mysql:host=localhost;dbname=architects_climate;port=3306;
2019-06-21 08:45:33 [-][1][-][info][yii\db\Command::query] SHOW TABLES
2019-06-21 08:45:33 [-][1][-][profile begin][yii\db\Command::query] SHOW TABLES
2019-06-21 08:45:33 [-][1][-][profile end][yii\db\Command::query] SHOW TABLES
2019-06-21 08:45:33 [-][1][-][info][yii\db\Command::query] SELECT `s`.`id`, `s`.`groupId`, `s`.`name`, `s`.`handle`, `language`, `s`.`primary`, `s`.`hasUrls`, `s`.`baseUrl`, `s`.`sortOrder`, `s`.`uid`
FROM `sites` `s`
INNER JOIN `sitegroups` `sg` ON `sg`.`id` = `s`.`groupId`
WHERE (`s`.`dateDeleted` IS NULL) AND (`sg`.`dateDeleted` IS NULL)
ORDER BY `sg`.`name`, `s`.`sortOrder`
2019-06-21 08:45:33 [-][1][-][profile begin][yii\db\Command::query] SELECT `s`.`id`, `s`.`groupId`, `s`.`name`, `s`.`handle`, `language`, `s`.`primary`, `s`.`hasUrls`, `s`.`baseUrl`, `s`.`sortOrder`, `s`.`uid`
FROM `sites` `s`
INNER JOIN `sitegroups` `sg` ON `sg`.`id` = `s`.`groupId`
WHERE (`s`.`dateDeleted` IS NULL) AND (`sg`.`dateDeleted` IS NULL)
ORDER BY `sg`.`name`, `s`.`sortOrder`
2019-06-21 08:45:33 [-][1][-][profile end][yii\db\Command::query] SELECT `s`.`id`, `s`.`groupId`, `s`.`name`, `s`.`handle`, `language`, `s`.`primary`, `s`.`hasUrls`, `s`.`baseUrl`, `s`.`sortOrder`, `s`.`uid`
FROM `sites` `s`
INNER JOIN `sitegroups` `sg` ON `sg`.`id` = `s`.`groupId`
WHERE (`s`.`dateDeleted` IS NULL) AND (`sg`.`dateDeleted` IS NULL)
ORDER BY `sg`.`name`, `s`.`sortOrder`
2019-06-21 08:45:33 [-][1][-][info][yii\db\Command::query] SELECT *
FROM `info`
LIMIT 1
2019-06-21 08:45:33 [-][1][-][profile begin][yii\db\Command::query] SELECT *
FROM `info`
LIMIT 1
2019-06-21 08:45:33 [-][1][-][profile end][yii\db\Command::query] SELECT *
FROM `info`
LIMIT 1
2019-06-21 08:45:33 [-][1][-][info][yii\web\Session::open] Session started
2019-06-21 08:45:33 [-][1][-][info][yii\db\Command::query] SELECT `preferences`
FROM `userpreferences`
WHERE `userId`=1
LIMIT 1
2019-06-21 08:45:33 [-][1][-][profile begin][yii\db\Command::query] SELECT `preferences`
FROM `userpreferences`
WHERE `userId`=1
LIMIT 1
2019-06-21 08:45:33 [-][1][-][profile end][yii\db\Command::query] SELECT `preferences`
FROM `userpreferences`
WHERE `userId`=1
LIMIT 1
2019-06-21 08:45:33 [-][1][-][info][yii\db\Command::query] SELECT `id`, `handle`, `version`, `schemaVersion`, `licenseKeyStatus`, `installDate`, `licensedEdition`
FROM `plugins`
2019-06-21 08:45:33 [-][1][-][profile begin][yii\db\Command::query] SELECT `id`, `handle`, `version`, `schemaVersion`, `licenseKeyStatus`, `installDate`, `licensedEdition`
FROM `plugins`
2019-06-21 08:45:33 [-][1][-][profile end][yii\db\Command::query] SELECT `id`, `handle`, `version`, `schemaVersion`, `licenseKeyStatus`, `installDate`, `licensedEdition`
FROM `plugins`
2019-06-21 08:45:33 [-][1][-][info][tomdiggle\gatekeeper\Gatekeeper::init] Gatekeeper plugin loaded
2019-06-21 08:45:33 [-][1][-][trace][craft\web\Application::_processActionRequest] Route requested: 'users/get-remaining-session-time'
2019-06-21 08:45:33 [-][1][-][trace][yii\base\Controller::runAction] Route to run: users/get-remaining-session-time
2019-06-21 08:45:33 [-][1][-][trace][yii\base\InlineAction::runWithParams] Running action: craft\controllers\UsersController::actionGetRemainingSessionTime()
2019-06-21 08:45:33 [-][1][-][info][yii\db\Command::query] SELECT `id`
FROM `sessions`
WHERE (`token`='MoKY4591mzX9z_BXzC7Ljz-Gz3vjM3K0EbS9cVnsaWeL0TA-M6ntTf6KYNwVCaeOGZy_RPJrj1OrCIvqBYixdIbkea1As39NhMHs') AND (`userId`='1')
LIMIT 1
2019-06-21 08:45:33 [-][1][-][profile begin][yii\db\Command::query] SELECT `id`
FROM `sessions`
WHERE (`token`='MoKY4591mzX9z_BXzC7Ljz-Gz3vjM3K0EbS9cVnsaWeL0TA-M6ntTf6KYNwVCaeOGZy_RPJrj1OrCIvqBYixdIbkea1As39NhMHs') AND (`userId`='1')
LIMIT 1
2019-06-21 08:45:33 [-][1][-][profile end][yii\db\Command::query] SELECT `id`
FROM `sessions`
WHERE (`token`='MoKY4591mzX9z_BXzC7Ljz-Gz3vjM3K0EbS9cVnsaWeL0TA-M6ntTf6KYNwVCaeOGZy_RPJrj1OrCIvqBYixdIbkea1As39NhMHs') AND (`userId`='1')
LIMIT 1
2019-06-21 08:45:33 [-][1][-][info][yii\db\Command::query] SELECT `fields`.`id`, `fields`.`dateCreated`, `fields`.`dateUpdated`, `fields`.`groupId`, `fields`.`name`, `fields`.`handle`, `fields`.`context`, `fields`.`instructions`, `fields`.`translationMethod`, `fields`.`translationKeyFormat`, `fields`.`type`, `fields`.`settings`, `fields`.`uid`, `fields`.`searchable`
FROM `fields` `fields`
ORDER BY `fields`.`name`, `fields`.`handle`
2019-06-21 08:45:33 [-][1][-][profile begin][yii\db\Command::query] SELECT `fields`.`id`, `fields`.`dateCreated`, `fields`.`dateUpdated`, `fields`.`groupId`, `fields`.`name`, `fields`.`handle`, `fields`.`context`, `fields`.`instructions`, `fields`.`translationMethod`, `fields`.`translationKeyFormat`, `fields`.`type`, `fields`.`settings`, `fields`.`uid`, `fields`.`searchable`
FROM `fields` `fields`
ORDER BY `fields`.`name`, `fields`.`handle`
2019-06-21 08:45:33 [-][1][-][profile end][yii\db\Command::query] SELECT `fields`.`id`, `fields`.`dateCreated`, `fields`.`dateUpdated`, `fields`.`groupId`, `fields`.`name`, `fields`.`handle`, `fields`.`context`, `fields`.`instructions`, `fields`.`translationMethod`, `fields`.`translationKeyFormat`, `fields`.`type`, `fields`.`settings`, `fields`.`uid`, `fields`.`searchable`
FROM `fields` `fields`
ORDER BY `fields`.`name`, `fields`.`handle`
2019-06-21 08:45:33 [-][1][-][info][yii\db\Command::query] SELECT `users`.`password`, `elements`.`id`, `elements`.`fieldLayoutId`, `elements`.`uid`, `elements`.`enabled`, `elements`.`archived`, `elements`.`dateCreated`, `elements`.`dateUpdated`, `elements_sites`.`slug`, `elements_sites`.`uri`, `elements_sites`.`enabled` AS `enabledForSite`, `users`.`username`, `users`.`firstName`, `users`.`lastName`, `users`.`email`, `users`.`admin`, `users`.`locked`, `users`.`pending`, `users`.`suspended`, `users`.`lastLoginDate`, `users`.`lockoutDate`, `users`.`photoId`, `users`.`hasDashboard`, `content`.`id` AS `contentId`, `content`.`field_consentForData`, `content`.`field_contactEmail`, `content`.`field_formDescription`, `content`.`field_nameOfPractice`, `content`.`field_newsletterConsent`, `content`.`field_siteDescription`, `content`.`field_siteTitle`, `content`.`field_website`
FROM (SELECT `elements`.`id` AS `elementsId`, `elements_sites`.`id` AS `elementsSitesId`, `content`.`id` AS `contentId`
FROM `elements` `elements`
INNER JOIN `users` `users` ON `users`.`id` = `elements`.`id`
INNER JOIN `elements_sites` `elements_sites` ON `elements_sites`.`elementId` = `elements`.`id`
INNER JOIN `content` `content` ON `content`.`elementId` = `elements`.`id`
WHERE (`elements_sites`.`siteId`='1') AND (`content`.`siteId`='1') AND (`elements`.`id`='1') AND (`elements`.`archived`=FALSE) AND (`elements`.`dateDeleted` IS NULL)
ORDER BY `users`.`username`
LIMIT 1) `subquery`
INNER JOIN `users` `users` ON `users`.`id` = `subquery`.`elementsId`
INNER JOIN `elements` `elements` ON `elements`.`id` = `subquery`.`elementsId`
INNER JOIN `elements_sites` `elements_sites` ON `elements_sites`.`id` = `subquery`.`elementsSitesId`
INNER JOIN `content` `content` ON `content`.`id` = `subquery`.`contentId`
ORDER BY `users`.`username`
2019-06-21 08:45:33 [-][1][-][profile begin][yii\db\Command::query] SELECT `users`.`password`, `elements`.`id`, `elements`.`fieldLayoutId`, `elements`.`uid`, `elements`.`enabled`, `elements`.`archived`, `elements`.`dateCreated`, `elements`.`dateUpdated`, `elements_sites`.`slug`, `elements_sites`.`uri`, `elements_sites`.`enabled` AS `enabledForSite`, `users`.`username`, `users`.`firstName`, `users`.`lastName`, `users`.`email`, `users`.`admin`, `users`.`locked`, `users`.`pending`, `users`.`suspended`, `users`.`lastLoginDate`, `users`.`lockoutDate`, `users`.`photoId`, `users`.`hasDashboard`, `content`.`id` AS `contentId`, `content`.`field_consentForData`, `content`.`field_contactEmail`, `content`.`field_formDescription`, `content`.`field_nameOfPractice`, `content`.`field_newsletterConsent`, `content`.`field_siteDescription`, `content`.`field_siteTitle`, `content`.`field_website`
FROM (SELECT `elements`.`id` AS `elementsId`, `elements_sites`.`id` AS `elementsSitesId`, `content`.`id` AS `contentId`
FROM `elements` `elements`
INNER JOIN `users` `users` ON `users`.`id` = `elements`.`id`
INNER JOIN `elements_sites` `elements_sites` ON `elements_sites`.`elementId` = `elements`.`id`
INNER JOIN `content` `content` ON `content`.`elementId` = `elements`.`id`
WHERE (`elements_sites`.`siteId`='1') AND (`content`.`siteId`='1') AND (`elements`.`id`='1') AND (`elements`.`archived`=FALSE) AND (`elements`.`dateDeleted` IS NULL)
ORDER BY `users`.`username`
LIMIT 1) `subquery`
INNER JOIN `users` `users` ON `users`.`id` = `subquery`.`elementsId`
INNER JOIN `elements` `elements` ON `elements`.`id` = `subquery`.`elementsId`
INNER JOIN `elements_sites` `elements_sites` ON `elements_sites`.`id` = `subquery`.`elementsSitesId`
INNER JOIN `content` `content` ON `content`.`id` = `subquery`.`contentId`
ORDER BY `users`.`username`
2019-06-21 08:45:33 [-][1][-][profile end][yii\db\Command::query] SELECT `users`.`password`, `elements`.`id`, `elements`.`fieldLayoutId`, `elements`.`uid`, `elements`.`enabled`, `elements`.`archived`, `elements`.`dateCreated`, `elements`.`dateUpdated`, `elements_sites`.`slug`, `elements_sites`.`uri`, `elements_sites`.`enabled` AS `enabledForSite`, `users`.`username`, `users`.`firstName`, `users`.`lastName`, `users`.`email`, `users`.`admin`, `users`.`locked`, `users`.`pending`, `users`.`suspended`, `users`.`lastLoginDate`, `users`.`lockoutDate`, `users`.`photoId`, `users`.`hasDashboard`, `content`.`id` AS `contentId`, `content`.`field_consentForData`, `content`.`field_contactEmail`, `content`.`field_formDescription`, `content`.`field_nameOfPractice`, `content`.`field_newsletterConsent`, `content`.`field_siteDescription`, `content`.`field_siteTitle`, `content`.`field_website`
FROM (SELECT `elements`.`id` AS `elementsId`, `elements_sites`.`id` AS `elementsSitesId`, `content`.`id` AS `contentId`
FROM `elements` `elements`
INNER JOIN `users` `users` ON `users`.`id` = `elements`.`id`
INNER JOIN `elements_sites` `elements_sites` ON `elements_sites`.`elementId` = `elements`.`id`
INNER JOIN `content` `content` ON `content`.`elementId` = `elements`.`id`
WHERE (`elements_sites`.`siteId`='1') AND (`content`.`siteId`='1') AND (`elements`.`id`='1') AND (`elements`.`archived`=FALSE) AND (`elements`.`dateDeleted` IS NULL)
ORDER BY `users`.`username`
LIMIT 1) `subquery`
INNER JOIN `users` `users` ON `users`.`id` = `subquery`.`elementsId`
INNER JOIN `elements` `elements` ON `elements`.`id` = `subquery`.`elementsId`
INNER JOIN `elements_sites` `elements_sites` ON `elements_sites`.`id` = `subquery`.`elementsSitesId`
INNER JOIN `content` `content` ON `content`.`id` = `subquery`.`contentId`
ORDER BY `users`.`username`
2019-06-21 08:45:32 [-][1][-][info][application] $_GET = [
    'p' => 'admin/actions/users/get-remaining-session-time'
    'dontExtendSession' => '1'
]

$_POST = []

$_FILES = []

$_COOKIE = [
    'CraftSessionId' => 'eafcd75ab285da975f6cb56036bd3a33'
    '1031b8c41dfff97a311a7ac99863bdc5_identity' => '96815c98758bcf98425865ec4bfaca9abd8f5edc8587742b72fcb9c83bbcd26da:2:{i:0;s:41:\"1031b8c41dfff97a311a7ac99863bdc5_identity\";i:1;s:250:\"[\"1\",\"[\\\"MoKY4591mzX9z_BXzC7Ljz-Gz3vjM3K0EbS9cVnsaWeL0TA-M6ntTf6KYNwVCaeOGZy_RPJrj1OrCIvqBYixdIbkea1As39NhMHs\\\",null,\\\"Mozilla/5.0 (Macintosh; Intel Mac OS X 10_14_4) AppleWebKit/537.36 (KHTML, like Gecko) Chrome/74.0.3729.169 Safari/537.36\\\"]\",3600]\";}'
    'CRAFT_CSRF_TOKEN' => '•••••••••••••••••••••••••••••••••••••••••••••••••••••••••••••••••••••••••••••••••••••••••••••••••••••••••••••••••••••••••••••••••••••••••••••••••••••••••••••••••••••••••••••••••••••••••••••••••••••••••••••••••••••••••••••••••••••••••••••••••••••••••••••••••••••••••••••••••••••••••••••••••••••••••••••••••••••••••••••••'
    '1031b8c41dfff97a311a7ac99863bdc5_username' => 'b580619f92d86e72a5b078716bc39144254e56e81230a2efc2c84dc585c7ea34a:2:{i:0;s:41:\"1031b8c41dfff97a311a7ac99863bdc5_username\";i:1;s:5:\"admin\";}'
]

$_SESSION = [
    'bd62416aa8538ede709019a5e113eea5__flash' => []
    '1031b8c41dfff97a311a7ac99863bdc5__token' => '••••••••••••••••••••••••••••••••••••••••••••••••••••••••••••••••••••••••••••••••••••••••••••••••••••'
    '1031b8c41dfff97a311a7ac99863bdc5__id' => '1'
    '1031b8c41dfff97a311a7ac99863bdc5__expire' => 1561135411
]

$_SERVER = [
    'PHP_FCGI_CHILDREN' => '4'
    'PWD' => '/Applications/MAMP/fcgi-bin'
    'SHLVL' => '0'
    'PHP_FCGI_MAX_REQUESTS' => '200'
    '__CF_USER_TEXT_ENCODING' => '0x1F5:0x0:0x2'
    'ORIG_SCRIPT_NAME' => '/fcgi-bin/php7.0.30.fcgi'
    'ORIG_PATH_TRANSLATED' => '/Users/danielpowell/Dropbox/sites/architects-climate/web/index.php'
    'ORIG_PATH_INFO' => '/index.php'
    'ORIG_SCRIPT_FILENAME' => '/Applications/MAMP/fcgi-bin/php7.0.30.fcgi'
    'SCRIPT_NAME' => '/index.php'
    'REQUEST_URI' => '/index.php?p=admin/actions/users/get-remaining-session-time&dontExtendSession=1'
    'QUERY_STRING' => 'p=admin/actions/users/get-remaining-session-time&dontExtendSession=1'
    'REQUEST_METHOD' => 'GET'
    'SERVER_PROTOCOL' => 'HTTP/1.1'
    'GATEWAY_INTERFACE' => 'CGI/1.1'
    'REDIRECT_URL' => '/index.php'
    'REDIRECT_QUERY_STRING' => 'p=admin/actions/users/get-remaining-session-time&dontExtendSession=1'
    'REMOTE_PORT' => '52478'
    'SCRIPT_FILENAME' => '/Users/danielpowell/Dropbox/sites/architects-climate/web/index.php'
    'SERVER_ADMIN' => 'you@example.com'
    'DOCUMENT_ROOT' => '/Users/danielpowell/Dropbox/sites/architects-climate/web'
    'REMOTE_ADDR' => '::1'
    'SERVER_PORT' => '80'
    'SERVER_ADDR' => '::1'
    'SERVER_NAME' => 'de.architects-climate.site'
    'SERVER_SOFTWARE' => 'Apache'
    'SERVER_SIGNATURE' => ''
    'PATH' => '/usr/bin:/bin:/usr/sbin:/sbin'
    'HTTP_COOKIE' => 'CraftSessionId=eafcd75ab285da975f6cb56036bd3a33; 1031b8c41dfff97a311a7ac99863bdc5_identity=96815c98758bcf98425865ec4bfaca9abd8f5edc8587742b72fcb9c83bbcd26da%3A2%3A%7Bi%3A0%3Bs%3A41%3A%221031b8c41dfff97a311a7ac99863bdc5_identity%22%3Bi%3A1%3Bs%3A250%3A%22%5B%221%22%2C%22%5B%5C%22MoKY4591mzX9z_BXzC7Ljz-Gz3vjM3K0EbS9cVnsaWeL0TA-M6ntTf6KYNwVCaeOGZy_RPJrj1OrCIvqBYixdIbkea1As39NhMHs%5C%22%2Cnull%2C%5C%22Mozilla%2F5.0+%28Macintosh%3B+Intel+Mac+OS+X+10_14_4%29+AppleWebKit%2F537.36+%28KHTML%2C+like+Gecko%29+Chrome%2F74.0.3729.169+Safari%2F537.36%5C%22%5D%22%2C3600%5D%22%3B%7D; CRAFT_CSRF_TOKEN=0271bf28eadff1240bd9a9d754ae80d2ffec29301e0997a11bb236e3a665f8d5a%3A2%3A%7Bi%3A0%3Bs%3A16%3A%22CRAFT_CSRF_TOKEN%22%3Bi%3A1%3Bs%3A208%3A%22Wiq97JKrGOCcnnUU9LUDQ1Jt2RIh5g74sCEG2zRI%7C9764c3963ff392ac2b4b587e7ebaffbbfb10b62e68fe4ffc560ab58df8d745edWiq97JKrGOCcnnUU9LUDQ1Jt2RIh5g74sCEG2zRI%7C1%7C%242y%2413%24a8JG0lx%2F5YOz1GkfZVkW7uIOxClwMRwQpS2ubw5KZnBpYpZ0rGV32%22%3B%7D; 1031b8c41dfff97a311a7ac99863bdc5_username=b580619f92d86e72a5b078716bc39144254e56e81230a2efc2c84dc585c7ea34a%3A2%3A%7Bi%3A0%3Bs%3A41%3A%221031b8c41dfff97a311a7ac99863bdc5_username%22%3Bi%3A1%3Bs%3A5%3A%22admin%22%3B%7D'
    'HTTP_ACCEPT_LANGUAGE' => 'en-GB,en-US;q=0.9,en;q=0.8'
    'HTTP_ACCEPT_ENCODING' => 'gzip, deflate'
    'HTTP_REFERER' => 'http://de.architects-climate.site/admin/globals/default/pageContent'
    'HTTP_USER_AGENT' => 'Mozilla/5.0 (Macintosh; Intel Mac OS X 10_14_4) AppleWebKit/537.36 (KHTML, like Gecko) Chrome/74.0.3729.169 Safari/537.36'
    'HTTP_X_REQUESTED_WITH' => 'XMLHttpRequest'
    'HTTP_ACCEPT' => 'application/json, text/javascript, */*; q=0.01'
    'HTTP_CONNECTION' => 'keep-alive'
    'HTTP_HOST' => 'de.architects-climate.site'
    'REDIRECT_STATUS' => '200'
    'REDIRECT_HANDLER' => 'php-fastcgi'
    'FCGI_ROLE' => 'RESPONDER'
    'PHP_SELF' => '/index.php'
    'REQUEST_TIME_FLOAT' => 1561131932.95
    'REQUEST_TIME' => 1561131932
    'argv' => [
        0 => 'p=admin/actions/users/get-remaining-session-time&dontExtendSession=1'
    ]
    'argc' => 1
    'ENVIRONMENT' => 'dev'
    'SECURITY_KEY' => '•••••••••••••••••••••••••••••••••••••••••••••••••••••'
    'DB_DRIVER' => 'mysql'
    'DB_SERVER' => 'localhost'
    'DB_USER' => 'root'
    'DB_PASSWORD' => '••••'
    'DB_DATABASE' => 'architects_climate'
    'DB_SCHEMA' => 'public'
    'DB_TABLE_PREFIX' => ''
    'DB_PORT' => ''
    'DEFAULT_SITE_URL' => 'http://architects-climate.site'
]
